2022 R/Pharma tidymodels Talk - Three new things in tidymodels
…
Regularized Cox model

cox_spec <- proportional_hazards(penalty = 0.01) %>%
  set_engine("glmnet")

cox_fit <- 
  cox_spec %>% fit(surv ~ ., data = time_to_million)

tidy(cox_fit)
#> # A tibble: 3,873 × 5
#>    term               step estimate lambda dev.ratio
#>    <chr>             <dbl>    <dbl>  <dbl>     <dbl>
#>  1 released_theaters     2 0.000100  0.747    0.0194
#>  2 released_theaters     3 0.000193  0.680    0.0358
#>  3 released_theaters     4 0.000280  0.620    0.0497
#>  4 released_theaters     5 0.000361  0.565    0.0616
#>  5 released_theaters     6 0.000437  0.515    0.0718
#>  6 released_theaters     7 0.000509  0.469    0.0804
#>  7 released_theaters     8 0.000576  0.427    0.0879
#>  8 released_theaters     9 0.000639  0.389    0.0942
#>  9 released_theaters    10 0.000698  0.355    0.0996
#> 10 released_theaters    11 0.000753  0.323    0.104 
#> # … with 3,863 more rows
…
Predict survival probability

pred <- predict(cox_fit, time_to_million[selected_rows, ], type = "survival", time = at_weeks)
pred
#> # A tibble: 3 × 1
#>   .pred            
#>   <list>           
#> 1 <tibble [99 × 2]>
#> 2 <tibble [99 × 2]>
#> 3 <tibble [99 × 2]>

pred$.pred[[1]]
#> # A tibble: 99 × 2
#>    .time .pred_survival
#>    <dbl>          <dbl>
#>  1   1        1.07e- 59
#>  2   1.5      8.73e-101
#>  3   2        7.69e-175
#>  4   2.5      3.81e-220
#>  5   3        3.32e-272
#>  6   3.5      1.37e-317
#>  7   4        0        
#>  8   4.5      0        
#>  9   5        0        
#> 10   5.5      0        
#> # … with 89 more rows

Approximation the survival curve

pred %>%
  mutate(id = factor(selected_rows)) %>%
  tidyr::unnest(cols = .pred)
#> # A tibble: 297 × 3
#>    .time .pred_survival id   
#>    <dbl>          <dbl> <fct>
#>  1   1        1.07e- 59 40   
#>  2   1.5      8.73e-101 40   
#>  3   2        7.69e-175 40   
#>  4   2.5      3.81e-220 40   
#>  5   3        3.32e-272 40   
#>  6   3.5      1.37e-317 40   
#>  7   4        0         40   
#>  8   4.5      0         40   
#>  9   5        0         40   
#> 10   5.5      0         40   
#> # … with 287 more rows
…
# start h2o server
h2o_start()

lr_spec <- logistic_reg() %>%
  set_engine("h2o")

lr_fit <- lr_spec %>% fit(Class ~ .,  data = ad_train)
lr_fit

Predict on the test set

predict(lr_fit, ad_test, type = "prob")
#> # A tibble: 84 × 2
#>    .pred_Control .pred_Impaired
#>            <dbl>          <dbl>
#>  1        0.932          0.0675
#>  2        0.821          0.179 
#>  3        0.973          0.0267
#>  4        0.941          0.0588
#>  5        0.383          0.617 
#>  6        0.836          0.164 
#>  7        0.0753         0.925 
#>  8        0.446          0.554 
#>  9        0.614          0.386 
#> 10        0.926          0.0744
#> # … with 74 more rows
…
Tuning clustering parameters

Trying multiple hyper parameter values can be done with tune_cluster() which has a similar interface as tune_grid()

kmeans_wflow <- kmeans_wflow %>%
  update_model(kmeans_spec %>% set_args(num_clusters = tune()))

grid <- tibble(num_clusters = 1:20)

kmeans_res <- tune_cluster(kmeans_wflow, resamples = ad_folds, grid = grid)

collect_metrics(kmeans_res)
#> # A tibble: 40 × 7
#>    num_clusters .metric .estimator   mean     n std_err .config              
#>           <int> <chr>   <chr>       <dbl> <int>   <dbl> <chr>                
#>  1            1 tot_sse standard   28557.    10    23.0 Preprocessor1_Model01
#>  2            1 tot_wss standard   28557.    10    23.0 Preprocessor1_Model01
#>  3            2 tot_sse standard   28557.    10    23.0 Preprocessor1_Model02
#>  4            2 tot_wss standard   23465.    10    52.0 Preprocessor1_Model02
#>  5            3 tot_sse standard   28557.    10    23.0 Preprocessor1_Model03
#>  6            3 tot_wss standard   21884.    10    45.6 Preprocessor1_Model03
#>  7            4 tot_sse standard   28557.    10    23.0 Preprocessor1_Model04
#>  8            4 tot_wss standard   20657.    10    52.8 Preprocessor1_Model04
#>  9            5 tot_sse standard   28557.    10    23.0 Preprocessor1_Model05
#> 10            5 tot_wss standard   20037.    10    47.7 Preprocessor1_Model05
#> # … with 30 more rows
…
